EDA: Badanie czynników kształtujących zdrowie
…
Jednak więcej rekordów niż przypuszczałem może mieć dość szeroki
przedział ufności. Poszerzmy pole widzenia przyjmując, że powyżej 20 pkt
procentowych dane mogą być już uważane za mało wiarygodne.

dane_state <- dane_state %>% 
  mutate(CI_Width = High_Confidence_Limit -Low_Confidence_Limit)

dane_state %>% 
  filter(CI_Width > 20) %>% 
  select(Year, State, Class, Strat_Category, CI_Width) 

## # A tibble: 7,530 × 5
##     Year State    Class                   Strat_Category CI_Width
##    <dbl> <fct>    <fct>                   <fct>             <dbl>
##  1  2011 Alabama  Obesity / Weight Status Race/Ethnicity     32.5
##  2  2011 Alabama  Obesity / Weight Status Race/Ethnicity     33.3
##  3  2011 Alabama  Obesity / Weight Status Race/Ethnicity     25.6
##  4  2011 Alaska   Obesity / Weight Status Race/Ethnicity     24.7
##  5  2011 Alaska   Obesity / Weight Status Race/Ethnicity     28.2
##  6  2011 Arizona  Obesity / Weight Status Race/Ethnicity     26.9
##  7  2011 Arizona  Obesity / Weight Status Race/Ethnicity     23.3
##  8  2011 Arizona  Obesity / Weight Status Race/Ethnicity     23.7
##  9  2011 Arkansas Obesity / Weight Status Race/Ethnicity     29.6
## 10  2011 Arkansas Obesity / Weight Status Race/Ethnicity     23  
## # ℹ 7,520 more rows
…
Widać najbardziej problemowe pytania. Czy są one związane z
kategorią?

Połączmy ostatnie dwie zmienne

zestawienie_kat_qest <- dane_state %>%
  filter(CI_Width > 20) %>%
  count(Question, Strat_Category, sort = TRUE)

zestawienie_kat_qest

## # A tibble: 36 × 3
##    Question                                                 Strat_Category     n
##    <chr>                                                    <fct>          <int>
##  1 Percent of adults aged 18 years and older who have an o… Race/Ethnicity  1460
##  2 Percent of adults aged 18 years and older who have obes… Race/Ethnicity  1292
##  3 Percent of adults who engage in no leisure-time physica… Race/Ethnicity  1205
##  4 Percent of adults who achieve at least 150 minutes a we… Race/Ethnicity   716
##  5 Percent of adults who engage in muscle-strengthening ac… Race/Ethnicity   686
##  6 Percent of adults who achieve more than 300 minutes a w… Race/Ethnicity   623
##  7 Percent of adults who achieve at least 150 minutes a we… Race/Ethnicity   533
##  8 Percent of adults who report consuming fruit less than … Race/Ethnicity   323
##  9 Percent of adults who report consuming vegetables less … Race/Ethnicity   224
## 10 Percent of adults aged 18 years and older who have obes… Income            59
## # ℹ 26 more rows
…
